RTest1
…
  summary
  
}

Printing Results

summary(data= wdi %>% 
          select(region, date, country, gdp, pop),
        x="gdp",
        weights="pop")

`summarise()` has grouped output by 'date'. You can override using the
`.groups` argument.

# A tibble: 218 × 8
# Groups:   date [32]
    date region                  n  mean    sd median   min    max
   <dbl> <chr>               <int> <dbl> <dbl>  <dbl> <dbl>  <dbl>
 1  1990 East Asia & Pacific    22 4913. 8497.  3526.  582. 32846.
 2  1991 East Asia & Pacific    22 5105. 8691.  3459.  579. 33870.
 3  1992 East Asia & Pacific    22 5291. 8667.  3527.  597. 34049.
 4  1993 East Asia & Pacific    22 5483. 8576.  3753.  635. 33783.
 5  1994 East Asia & Pacific    22 5740. 8619.  3840.  669. 34054.
 6  1995 East Asia & Pacific    22 6037. 8796.  3881.  709. 34868.
 7  1996 East Asia & Pacific    22 6340. 9011.  3878.  746. 35879.
 8  1997 East Asia & Pacific    22 6538. 9045.  3731.  782. 36145.
 9  1998 East Asia & Pacific    22 6449. 8823.  3771.  817. 36099.
10  1999 East Asia & Pacific    22 6635. 8836.  3764.  875. 37476.
# ℹ 208 more rows
…
collating_table(data= wdi %>% 
                  select(region, date, iso3c, lifeex, pov_intl, gdp, pop), 
                variables= c("gdp", "lifeex", "pov_intl")) 

`summarise()` has grouped output by 'region'. You can override using the
`.groups` argument.
`summarise()` has grouped output by 'date'. You can override using the
`.groups` argument.
`summarise()` has grouped output by 'date'. You can override using the
`.groups` argument.
`summarise()` has grouped output by 'date'. You can override using the
`.groups` argument.

# A tibble: 1,090 × 7
# Groups:   date [32]
   statistic region               date        pop lifeex    gdp pov_intl
   <chr>     <chr>               <dbl>      <dbl>  <dbl>  <dbl>    <dbl>
 1 mean      East Asia & Pacific  1990 1754166013  68.2   4913.  0.590  
 2 sd        East Asia & Pacific  1990 1754166013   3.99  8497.  0.254  
 3 median    East Asia & Pacific  1990 1754166013  66.3   3526.  0.123  
 4 min       East Asia & Pacific  1990 1754166013  53.7    582.  0.00480
 5 max       East Asia & Pacific  1990 1754166013  78.8  32846.  0.952  
 6 mean      East Asia & Pacific  1991 1779284317  68.4   5105.  0.573  
 7 sd        East Asia & Pacific  1991 1779284317   3.96  8691.  0.246  
 8 median    East Asia & Pacific  1991 1779284317  66.8   3459.  0.115  
 9 min       East Asia & Pacific  1991 1779284317  54.5    579.  0.00480
10 max       East Asia & Pacific  1991 1779284317  79.0  33870.  0.952  
# ℹ 1,080 more rows
…
lorenz <-data%>% 
  group_by(year) %>%
  arrange(income) %>% 
  mutate(cum_income=cumsum(income*weight)/sum(income*weight),
         cum_population=cumsum(weight)/sum(weight)) 

lorenz

}

Printing Results

lorenz()

# A tibble: 1,000,000 × 6
# Groups:   year [10]
    year income weight area  cum_income cum_population
   <dbl>  <dbl>  <int> <fct>      <dbl>          <dbl>
 1  2001      0      1 urban          0   0.0000000299
 2  2001      0      1 rural          0   0.0000000598
 3  2001      0      1 urban          0   0.0000000897
 4  2001      0      1 urban          0   0.000000120 
 5  2001      0      1 urban          0   0.000000149 
 6  2001      0      1 urban          0   0.000000179 
 7  2001      0      1 urban          0   0.000000209 
 8  2001      0      1 urban          0   0.000000239 
 9  2001      0      1 urban          0   0.000000269 
10  2001      0      1 urban          0   0.000000299 
# ℹ 999,990 more rows
…
lorenz

}

Printing Results

lorenz_2()

# A tibble: 1,000 × 6
# Groups:   year [10]
    year income weight area  cum_income cum_population
   <dbl>  <dbl>  <int> <fct>      <dbl>          <dbl>
 1  2008  1.59       2 rural  0.0000169      0.0000592
 2  2010  2.80       3 urban  0.0000402      0.0000927
 3  2005  0          3 urban  0              0.000109 
 4  2009  2.26       5 urban  0.0000441      0.000144 
 5  2005  0          2 urban  0              0.000182 
 6  2006  0.465      7 urban  0.0000175      0.000205 
 7  2008  1.67       7 rural  0.0000789      0.000267 
 8  2009  2.29       8 urban  0.000116       0.000375 
 9  2007  1.11      13 rural  0.0000846      0.000399 
10  2006  0.470      7 urban  0.0000352      0.000409 
# ℹ 990 more rows
…
